Taller 3 - Modelo Regresión Multinomial
…
Agricultura
158

Remesas
197

Se identifica una cantidad significativa de valores faltantes en las series numéricas, se realizará un proceso de imputación de variables que incluirá:

Interpolación de variables, usando el método na.spline.

Exclusión de registros, en los casos en los que todos los datos sean faltantes para las series numéricas.

Eliminación de variables, si la cantidad sigue siendo significativa.

# A tibble: 1,085 × 17
# Groups:   Pais [217]
   Pais     Año Region Gasto_Salud Gasto_ID Gasto_Militar Gasto_Educacion Ahorro
   <chr>  <dbl> <chr>        <dbl>    <dbl>         <dbl>           <dbl>  <dbl>
 1 Afgan…  2020 Asia …       15.5    NA             1.36            NA     -2.74
 2 Alban…  2020 Balca…        7.50   NA             1.30             3.34  17.7 
 3 Alema…  2020 Europ…       12.7     3.13          1.37             5.59  28.0 
 4 Andor…  2020 Europ…        8.79   NA            NA                2.63  NA   
 5 Angola  2020 Áfric…        3.27   NA             1.74             2.67  28.1 
 6 Antig…  2020 Latin…        5.73   NA            NA                2.99  NA   
 7 Arabi…  2020 Orien…        6.65    0.498         8.79             5.11  20.0 
 8 Argel…  2020 Norte…        5.64   NA             6.66             6.19  33.3 
 9 Argen…  2020 Latin…       10.5     0.541         0.734            5.28  15.0 
10 Armen…  2020 Europ…       12.2     0.209         4.98             2.71  15.7 
# ℹ 1,075 more rows
# ℹ 9 more variables: Exportaciones <dbl>, Importaciones <dbl>,
#   Industria <dbl>, Inversion_Extranjera_Entrada <dbl>,
#   Inversion_Extranjera_Salida <dbl>, Deuda <dbl>,
#   Recaudacion_Impuestos <dbl>, Agricultura <dbl>, Remesas <dbl>
…
